Bead Classification
…
The grid approach above did not involve every combination of min_n and mtry but it provides an idea of what parameter ranges are best. We can get a better handle on the hyperparameters by tuning one more time, this time using regular_grid(). In this approach we set ranges of hyperparameters we want to try, based on the results from our initial tune.

rf_grid <- grid_regular(
  mtry(range = c(6, 12)),
  min_n(range = c(2, 10)),
  levels = 6
)

rf_grid

## # A tibble: 36 x 2
##     mtry min_n
##    <int> <int>
##  1     6     2
##  2     7     2
##  3     8     2
##  4     9     2
##  5    10     2
##  6    12     2
##  7     6     3
##  8     7     3
##  9     8     3
## 10     9     3
## #  with 26 more rows
…
Fit the final best model to the training set and evaluate the test set:

rf_wf_fit <- fit(rf_wf, beads_train)

results <- predict(rf_wf_fit, beads_test) %>%
  bind_cols(beads_test %>% select(celltype))

results

## # A tibble: 329 x 2
##    .pred_class celltype
##    <fct>       <fct>
##  1 4.5um       4.5um
##  2 4.5um       4.5um
##  3 4.5um       4.5um
##  4 4.5um       4.5um
##  5 4.5um       4.5um
##  6 4.5um       4.5um
##  7 4.5um       4.5um
##  8 4.5um       4.5um
##  9 4.5um       4.5um
## 10 4.5um       4.5um
## #  with 319 more rows
…
